%YAML 1.1
%TAG !u! tag:unity3d.com,2011:
--- !u!114 &11400000
MonoBehaviour:
  m_ObjectHideFlags: 0
  m_CorrespondingSourceObject: {fileID: 0}
  m_PrefabInstance: {fileID: 0}
  m_PrefabAsset: {fileID: 0}
  m_GameObject: {fileID: 0}
  m_Enabled: 1
  m_EditorHideFlags: 0
  m_Script: {fileID: -1893448595, guid: a040fb66244a7f54289914d98ea4ef7d, type: 3}
  m_Name: ArribaAlLimit
  m_EditorClassIdentifier: 
  _data:
    _json: '{"graph":{"variables":{"collection":{"$content":[],"$version":"A"},"$version":"A"},"controlInputDefinitions":[],"controlOutputDefinitions":[],"valueInputDefinitions":[],"valueOutputDefinitions":[],"title":null,"summary":null,"pan":{"x":-318.026,"y":85.99046},"zoom":1.0,"elements":[{"coroutine":false,"defaultValues":{},"position":{"x":-315.0,"y":-161.0},"guid":"ce439f36-014d-44cb-9f15-8e843a013ec9","$version":"A","$type":"Bolt.Update","$id":"9"},{"member":{"name":"x","parameterTypes":null,"targetType":"UnityEngine.Vector2","targetTypeName":"UnityEngine.Vector2","$version":"A"},"defaultValues":{"target":{"x":0.0,"y":0.0,"$type":"UnityEngine.Vector2"}},"position":{"x":-968.0,"y":24.0},"guid":"e13d84d0-d725-46d4-abe4-141325f5f53f","$version":"A","$type":"Bolt.GetMember","$id":"11"},{"defaultValues":{},"position":{"x":-798.0,"y":19.0},"guid":"5ddc76d6-1981-4c62-8793-7629c82301d7","$version":"A","$type":"Bolt.GenericMultiply","$id":"14"},{"defaultValues":{},"position":{"x":2.0,"y":-120.0},"guid":"51f6f95c-37b7-4adf-a6fd-ef52db9188ef","$version":"A","$type":"Bolt.Branch","$id":"16"},{"chainable":false,"member":{"name":".ctor","parameterTypes":["System.Single","System.Single"],"targetType":"UnityEngine.Vector2","targetTypeName":"UnityEngine.Vector2","$version":"A"},"defaultValues":{"%x":{"$content":0.0,"$type":"System.Single"},"%y":{"$content":0.0,"$type":"System.Single"}},"position":{"x":-596.0,"y":2.0},"guid":"3357a37b-b843-4b86-9a3c-8b23ba48c799","$version":"A","$type":"Bolt.InvokeMember","$id":"18"},{"member":{"name":"localScale","parameterTypes":null,"targetType":"UnityEngine.Transform","targetTypeName":"UnityEngine.Transform","$version":"A"},"defaultValues":{"target":null},"position":{"x":-1167.0,"y":23.0},"guid":"1f5a7799-f523-4362-97ae-154d882b548b","$version":"A","$type":"Bolt.GetMember","$id":"21"},{"type":"System.Single","value":{"$content":0.0,"$type":"System.Single"},"defaultValues":{},"position":{"x":-942.0,"y":146.0},"guid":"d65c4a27-d903-47f1-8014-c370601a7e8f","$version":"A","$type":"Bolt.Literal","$id":"24"},{"nest":{"source":"Macro","macro":0,"embed":null},"defaultValues":{"Offset":{"x":0.0,"y":0.0,"$type":"UnityEngine.Vector2"},"Radi":{"$content":1.0,"$type":"System.Single"},"Distancia":{"$content":0.0,"$type":"System.Single"}},"position":{"x":-401.0,"y":18.0},"guid":"1f827b2d-3cc1-4a1f-a96d-ceb117923ee7","$version":"A","$type":"Bolt.SuperUnit","$id":"26"},{"defaultValues":{},"position":{"x":172.0,"y":-102.0},"guid":"4bc8afb6-88c2-4360-b2df-cc75a410607c","$version":"A","$type":"Bolt.TriggerStateTransition","$id":"29"},{"sourceUnit":{"$ref":"9"},"sourceKey":"trigger","destinationUnit":{"$ref":"16"},"destinationKey":"enter","guid":"4bd154f4-1a2f-4921-afd8-25fe9edd11ad","$type":"Bolt.ControlConnection"},{"sourceUnit":{"$ref":"16"},"sourceKey":"ifFalse","destinationUnit":{"$ref":"29"},"destinationKey":"trigger","guid":"957ac565-e755-458d-bc7c-d595879c7cfb","$type":"Bolt.ControlConnection"},{"sourceUnit":{"$ref":"26"},"sourceKey":"SocATerra","destinationUnit":{"$ref":"16"},"destinationKey":"condition","guid":"7af50ef2-c542-43ca-a31e-f345221a5bdc","$type":"Bolt.ValueConnection"},{"sourceUnit":{"$ref":"18"},"sourceKey":"result","destinationUnit":{"$ref":"26"},"destinationKey":"Offset","guid":"39589911-8672-4a05-b1bc-d319bae0fdff","$type":"Bolt.ValueConnection"},{"sourceUnit":{"$ref":"14"},"sourceKey":"product","destinationUnit":{"$ref":"18"},"destinationKey":"%x","guid":"b278eb16-4996-47f8-8bd2-b50b64d467d7","$type":"Bolt.ValueConnection"},{"sourceUnit":{"$ref":"11"},"sourceKey":"value","destinationUnit":{"$ref":"14"},"destinationKey":"a","guid":"f72bbfa2-4704-4ca0-a7e0-3212553573d5","$type":"Bolt.ValueConnection"},{"sourceUnit":{"$ref":"21"},"sourceKey":"value","destinationUnit":{"$ref":"11"},"destinationKey":"target","guid":"cbb1c235-09e9-4ca7-a3b0-92d127d706db","$type":"Bolt.ValueConnection"},{"sourceUnit":{"$ref":"24"},"sourceKey":"output","destinationUnit":{"$ref":"14"},"destinationKey":"b","guid":"edc11e65-8f0e-45e1-bf44-14ed6f8737a8","$type":"Bolt.ValueConnection"},{"position":{"xMin":-36.0,"yMin":-174.0,"xMax":348.0,"yMax":13.0},"label":"Activo
      transici\u00f3 si no s\u00f3c a terra","comment":null,"color":{"r":0.0,"g":0.0,"b":0.0,"a":1.0},"guid":"60ab71db-5c08-48a4-8a7a-bf19d4347233","$version":"A","$type":"Ludiq.GraphGroup"},{"position":{"xMin":-1202.429,"yMin":-31.99999,"xMax":-168.1427,"yMax":254.4286},"label":"Vector
      de offset cap endavant","comment":null,"color":{"r":0.0,"g":0.0,"b":0.0,"a":1.0},"guid":"63823e7e-3427-47f0-8b33-71d02d22f961","$version":"A","$type":"Ludiq.GraphGroup"}],"$version":"A"}}'
    _objectReferences:
    - {fileID: 11400000, guid: be7f3d05a6c9bfd44bf1f57cadb53890, type: 2}
